1
0OPTDRV    TYPICAL X
 OPTDRV         .1000000000000E+01     .1000000000000E+01     .1000000000000E+01     .1000000000000E+01
 OPTDRV    DIAGONAL SCALING MATRIX FOR X
 OPTDRV         .1000000000000E+01     .1000000000000E+01     .1000000000000E+01     .1000000000000E+01
 OPTDRV    TYPICAL F =  .1000000000000E+01
0OPTDRV    NUMBER OF GOOD DIGITS IN FCN=    6
 OPTDRV    GRADIENT FLAG  =    0   (=1 IF ANALYTIC GRADIENT SUPPLIED)
 OPTDRV    HESSIAN FLAG   =    0   (=1 IF ANALYTIC HESSIAN SUPPLIED)
 OPTDRV    EXPENSE FLAG   =    0   (=1 IF MINIMIZATION FUNCTION EXPENSIVE TO EVALUATE)
 OPTDRV    METHOD TO USE  =    1   (=1,2,3 FOR LINE SEARCH, DOUBLE DOGLEG, MORE-HEBDON RESPECTIVELY)
 OPTDRV    ITERATION LIMIT=  500
 OPTDRV    MACHINE EPSILON=  .1192092895508E-06
0OPTDRV    MAXIMUM STEP SIZE =  .4472136230469E+04
 OPTDRV    STEP TOLERANCE    =  .1000000013351E-09
 OPTDRV    GRADIENT TOLERANCE=  .1000000013351E-09
 OPTDRV    TRUST REG RADIUS  = -.1000000000000E+01
 OPTDRV    REL NOISE IN FCN  =  .9999999974752E-06
 OPTDRV    ANAL-FD TOLERANCE =  .9999999776483E-02

0RESULT    ITERATE K=    0
 RESULT       STEP
 RESULT                   .0000000000000E+00    .0000000000000E+00    .0000000000000E+00    .0000000000000E+00
 RESULT       X(K)
 RESULT                  -.3000000000000E+01   -.1000000000000E+01   -.3000000000000E+01   -.1000000000000E+01
 RESULT       FUNCTION AT X(K)
 RESULT                   .1919200000000E+05
 RESULT       GRADIENT AT X(K)
 RESULT                  -.1199088574219E+05   -.2080078125000E+04   -.1079296875000E+05   -.1880859252930E+04
 RESULT       HESSIAN AT X(K)
 RESULT     ROW    1
 RESULT           .1098524609375E+05
 RESULT     ROW    2
 RESULT           .1191406494141E+04    .2148437957764E+03
 RESULT     ROW    3
 RESULT          -.2170139551163E+01   -.6510418415070E+01    .9887155273438E+04
 RESULT     ROW    4
 RESULT           .0000000000000E+00    .3906250762939E+02    .1074218994141E+04    .2148437957764E+03
0OPTSTP    SUCCESSIVE ITERATES WITHIN TOLERANCE.
 OPTSTP    CURRENT ITERATE IS PROBABLY SOLUTION.

0RESULT    ITERATE K=  166
 RESULT       X(K)
 RESULT                   .9886556267738E+00    .9783744215965E+00    .1003014683723E+01    .1007064461708E+01
 RESULT       FUNCTION AT X(K)
 RESULT                   .2522428985685E-02
 RESULT       GRADIENT AT X(K)
 RESULT                  -.6286427378654E-04    .3492459654808E-04   -.8820971743262E-05    .1040388087858E-04
 OPTEST    #FCN  EVAL =      3171
 OPTEST    GRAD EVAL =          0
 OPTEST    HSN  EVAL =          0
 OPTEST    EXEC TIME =     1.0000 SEC
1
0OPTDRV    TYPICAL X
 OPTDRV         .1000000000000E+01     .1000000000000E+01     .1000000000000E+01     .1000000000000E+01
 OPTDRV    DIAGONAL SCALING MATRIX FOR X
 OPTDRV         .1000000000000E+01     .1000000000000E+01     .1000000000000E+01     .1000000000000E+01
 OPTDRV    TYPICAL F =  .1000000000000E+01
0OPTDRV    NUMBER OF GOOD DIGITS IN FCN=    6
 OPTDRV    GRADIENT FLAG  =    0   (=1 IF ANALYTIC GRADIENT SUPPLIED)
 OPTDRV    HESSIAN FLAG   =    0   (=1 IF ANALYTIC HESSIAN SUPPLIED)
 OPTDRV    EXPENSE FLAG   =    1   (=1 IF MINIMIZATION FUNCTION EXPENSIVE TO EVALUATE)
 OPTDRV    METHOD TO USE  =    1   (=1,2,3 FOR LINE SEARCH, DOUBLE DOGLEG, MORE-HEBDON RESPECTIVELY)
 OPTDRV    ITERATION LIMIT=  500
 OPTDRV    MACHINE EPSILON=  .1192092895508E-06
0OPTDRV    MAXIMUM STEP SIZE =  .4472136230469E+04
 OPTDRV    STEP TOLERANCE    =  .1000000013351E-09
 OPTDRV    GRADIENT TOLERANCE=  .1000000013351E-09
 OPTDRV    TRUST REG RADIUS  = -.1000000000000E+01
 OPTDRV    REL NOISE IN FCN  =  .9999999974752E-06
 OPTDRV    ANAL-FD TOLERANCE =  .9999999776483E-02

0RESULT    ITERATE K=    0
 RESULT       STEP
 RESULT                   .0000000000000E+00    .0000000000000E+00    .0000000000000E+00    .0000000000000E+00
 RESULT       X(K)
 RESULT                  -.3000000000000E+01   -.1000000000000E+01   -.3000000000000E+01   -.1000000000000E+01
 RESULT       FUNCTION AT X(K)
 RESULT                   .1919200000000E+05
 RESULT       GRADIENT AT X(K)
 RESULT                  -.1199088574219E+05   -.2080078125000E+04   -.1079296875000E+05   -.1880859252930E+04
 RESULT       HESSIAN AT X(K)
 RESULT     ROW    1
 RESULT           .1000000000000E+01
 RESULT     ROW    2
 RESULT           .0000000000000E+00    .1000000000000E+01
 RESULT     ROW    3
 RESULT           .0000000000000E+00    .0000000000000E+00    .1000000000000E+01
 RESULT     ROW    4
 RESULT           .0000000000000E+00    .0000000000000E+00    .0000000000000E+00    .1000000000000E+01
0OPTSTP    SUCCESSIVE ITERATES WITHIN TOLERANCE.
 OPTSTP    CURRENT ITERATE IS PROBABLY SOLUTION.

0RESULT    ITERATE K=   33
 RESULT       X(K)
 RESULT                   .9886587858200E+00    .9783805012703E+00    .1003011465073E+01    .1007057905197E+01
 RESULT       FUNCTION AT X(K)
 RESULT                   .2522349357605E-02
 RESULT       GRADIENT AT X(K)
 RESULT                   .1396983770974E-04   -.8614733815193E-05    .2785579090414E-04   -.2288868563483E-04
 OPTEST    #FCN  EVAL =       179
 OPTEST    GRAD EVAL =          0
 OPTEST    HSN  EVAL =          0
 OPTEST    EXEC TIME =     1.0000 SEC
1
0OPTDRV    TYPICAL X
 OPTDRV         .1000000000000E+01     .1000000000000E+01     .1000000000000E+01     .1000000000000E+01
 OPTDRV    DIAGONAL SCALING MATRIX FOR X
 OPTDRV         .1000000000000E+01     .1000000000000E+01     .1000000000000E+01     .1000000000000E+01
 OPTDRV    TYPICAL F =  .1000000000000E+01
0OPTDRV    NUMBER OF GOOD DIGITS IN FCN=    6
 OPTDRV    GRADIENT FLAG  =    0   (=1 IF ANALYTIC GRADIENT SUPPLIED)
 OPTDRV    HESSIAN FLAG   =    0   (=1 IF ANALYTIC HESSIAN SUPPLIED)
 OPTDRV    EXPENSE FLAG   =    0   (=1 IF MINIMIZATION FUNCTION EXPENSIVE TO EVALUATE)
 OPTDRV    METHOD TO USE  =    2   (=1,2,3 FOR LINE SEARCH, DOUBLE DOGLEG, MORE-HEBDON RESPECTIVELY)
 OPTDRV    ITERATION LIMIT=  500
 OPTDRV    MACHINE EPSILON=  .1192092895508E-06
0OPTDRV    MAXIMUM STEP SIZE =  .4472136230469E+04
 OPTDRV    STEP TOLERANCE    =  .1000000013351E-09
 OPTDRV    GRADIENT TOLERANCE=  .1000000013351E-09
 OPTDRV    TRUST REG RADIUS  = -.1000000000000E+01
 OPTDRV    REL NOISE IN FCN  =  .9999999974752E-06
 OPTDRV    ANAL-FD TOLERANCE =  .9999999776483E-02

0RESULT    ITERATE K=    0
 RESULT       STEP
 RESULT                   .0000000000000E+00    .0000000000000E+00    .0000000000000E+00    .0000000000000E+00
 RESULT       X(K)
 RESULT                  -.3000000000000E+01   -.1000000000000E+01   -.3000000000000E+01   -.1000000000000E+01
 RESULT       FUNCTION AT X(K)
 RESULT                   .1919200000000E+05
 RESULT       GRADIENT AT X(K)
 RESULT                  -.1199088574219E+05   -.2080078125000E+04   -.1079296875000E+05   -.1880859252930E+04
 RESULT       HESSIAN AT X(K)
 RESULT     ROW    1
 RESULT           .1098524609375E+05
 RESULT     ROW    2
 RESULT           .1191406494141E+04    .2148437957764E+03
 RESULT     ROW    3
 RESULT          -.2170139551163E+01   -.6510418415070E+01    .9887155273438E+04
 RESULT     ROW    4
 RESULT           .0000000000000E+00    .3906250762939E+02    .1074218994141E+04    .2148437957764E+03
 OPTDRV    SHIFT FROM FORWARD TO CENTRAL DIFFERENCES IN ITERATION   114
0OPTSTP    LAST GLOBAL STEP FAILED TO LOCATE A POINT LOWER THAN X.
 OPTSTP    EITHER X IS AN APPROXIMATE LOCAL MINIMUM OF THE FUNCTION,
 OPTSTP    THE FUNCTION IS TOO NON-LINEAR FOR THIS ALGORITHM,
 OPTSTP    OR STEPTL IS TOO LARGE.

0RESULT    ITERATE K=  132
 RESULT       X(K)
 RESULT                   .9991541504860E+00    .9984048008919E+00    .1000278949738E+01    .1000659465790E+01
 RESULT       FUNCTION AT X(K)
 RESULT                   .1190130387840E-04
 RESULT       GRADIENT AT X(K)
 RESULT                   .2346933069930E-04   -.2095476020259E-05    .2122823570971E-04   -.9214018064085E-05
 OPTEST    #FCN  EVAL =      2629
 OPTEST    GRAD EVAL =          0
 OPTEST    HSN  EVAL =          0
 OPTEST    EXEC TIME =     1.0000 SEC
1
0OPTDRV    TYPICAL X
 OPTDRV         .1000000000000E+01     .1000000000000E+01     .1000000000000E+01     .1000000000000E+01
 OPTDRV    DIAGONAL SCALING MATRIX FOR X
 OPTDRV         .1000000000000E+01     .1000000000000E+01     .1000000000000E+01     .1000000000000E+01
 OPTDRV    TYPICAL F =  .1000000000000E+01
0OPTDRV    NUMBER OF GOOD DIGITS IN FCN=    6
 OPTDRV    GRADIENT FLAG  =    0   (=1 IF ANALYTIC GRADIENT SUPPLIED)
 OPTDRV    HESSIAN FLAG   =    0   (=1 IF ANALYTIC HESSIAN SUPPLIED)
 OPTDRV    EXPENSE FLAG   =    1   (=1 IF MINIMIZATION FUNCTION EXPENSIVE TO EVALUATE)
 OPTDRV    METHOD TO USE  =    2   (=1,2,3 FOR LINE SEARCH, DOUBLE DOGLEG, MORE-HEBDON RESPECTIVELY)
 OPTDRV    ITERATION LIMIT=  500
 OPTDRV    MACHINE EPSILON=  .1192092895508E-06
0OPTDRV    MAXIMUM STEP SIZE =  .4472136230469E+04
 OPTDRV    STEP TOLERANCE    =  .1000000013351E-09
 OPTDRV    GRADIENT TOLERANCE=  .1000000013351E-09
 OPTDRV    TRUST REG RADIUS  = -.1000000000000E+01
 OPTDRV    REL NOISE IN FCN  =  .9999999974752E-06
 OPTDRV    ANAL-FD TOLERANCE =  .9999999776483E-02

0RESULT    ITERATE K=    0
 RESULT       STEP
 RESULT                   .0000000000000E+00    .0000000000000E+00    .0000000000000E+00    .0000000000000E+00
 RESULT       X(K)
 RESULT                  -.3000000000000E+01   -.1000000000000E+01   -.3000000000000E+01   -.1000000000000E+01
 RESULT       FUNCTION AT X(K)
 RESULT                   .1919200000000E+05
 RESULT       GRADIENT AT X(K)
 RESULT                  -.1199088574219E+05   -.2080078125000E+04   -.1079296875000E+05   -.1880859252930E+04
 RESULT       HESSIAN AT X(K)
 RESULT     ROW    1
 RESULT           .1000000000000E+01
 RESULT     ROW    2
 RESULT           .0000000000000E+00    .1000000000000E+01
 RESULT     ROW    3
 RESULT           .0000000000000E+00    .0000000000000E+00    .1000000000000E+01
 RESULT     ROW    4
 RESULT           .0000000000000E+00    .0000000000000E+00    .0000000000000E+00    .1000000000000E+01
 OPTDRV    SHIFT FROM FORWARD TO CENTRAL DIFFERENCES IN ITERATION    33
0OPTSTP    LAST GLOBAL STEP FAILED TO LOCATE A POINT LOWER THAN X.
 OPTSTP    EITHER X IS AN APPROXIMATE LOCAL MINIMUM OF THE FUNCTION,
 OPTSTP    THE FUNCTION IS TOO NON-LINEAR FOR THIS ALGORITHM,
 OPTSTP    OR STEPTL IS TOO LARGE.

0RESULT    ITERATE K=   36
 RESULT       X(K)
 RESULT                   .9989230632782E+00    .9979050159454E+00    .1000666618347E+01    .1001409530640E+01
 RESULT       FUNCTION AT X(K)
 RESULT                   .8381728548557E-05
 RESULT       GRADIENT AT X(K)
 RESULT                   .1474358327687E-01   -.2858601743355E-02    .1009383797646E-01    .6329660536721E-03
 OPTEST    #FCN  EVAL =       258
 OPTEST    GRAD EVAL =          0
 OPTEST    HSN  EVAL =          0
 OPTEST    EXEC TIME =     1.0000 SEC
1
0OPTDRV    TYPICAL X
 OPTDRV         .1000000000000E+01     .1000000000000E+01     .1000000000000E+01     .1000000000000E+01
 OPTDRV    DIAGONAL SCALING MATRIX FOR X
 OPTDRV         .1000000000000E+01     .1000000000000E+01     .1000000000000E+01     .1000000000000E+01
 OPTDRV    TYPICAL F =  .1000000000000E+01
0OPTDRV    NUMBER OF GOOD DIGITS IN FCN=    6
 OPTDRV    GRADIENT FLAG  =    0   (=1 IF ANALYTIC GRADIENT SUPPLIED)
 OPTDRV    HESSIAN FLAG   =    0   (=1 IF ANALYTIC HESSIAN SUPPLIED)
 OPTDRV    EXPENSE FLAG   =    0   (=1 IF MINIMIZATION FUNCTION EXPENSIVE TO EVALUATE)
 OPTDRV    METHOD TO USE  =    3   (=1,2,3 FOR LINE SEARCH, DOUBLE DOGLEG, MORE-HEBDON RESPECTIVELY)
 OPTDRV    ITERATION LIMIT=  500
 OPTDRV    MACHINE EPSILON=  .1192092895508E-06
0OPTDRV    MAXIMUM STEP SIZE =  .4472136230469E+04
 OPTDRV    STEP TOLERANCE    =  .1000000013351E-09
 OPTDRV    GRADIENT TOLERANCE=  .1000000013351E-09
 OPTDRV    TRUST REG RADIUS  = -.1000000000000E+01
 OPTDRV    REL NOISE IN FCN  =  .9999999974752E-06
 OPTDRV    ANAL-FD TOLERANCE =  .9999999776483E-02

0RESULT    ITERATE K=    0
 RESULT       STEP
 RESULT                   .0000000000000E+00    .0000000000000E+00    .0000000000000E+00    .0000000000000E+00
 RESULT       X(K)
 RESULT                  -.3000000000000E+01   -.1000000000000E+01   -.3000000000000E+01   -.1000000000000E+01
 RESULT       FUNCTION AT X(K)
 RESULT                   .1919200000000E+05
 RESULT       GRADIENT AT X(K)
 RESULT                  -.1199088574219E+05   -.2080078125000E+04   -.1079296875000E+05   -.1880859252930E+04
 RESULT       HESSIAN AT X(K)
 RESULT     ROW    1
 RESULT           .1098524609375E+05
 RESULT     ROW    2
 RESULT           .1191406494141E+04    .2148437957764E+03
 RESULT     ROW    3
 RESULT          -.2170139551163E+01   -.6510418415070E+01    .9887155273438E+04
 RESULT     ROW    4
 RESULT           .0000000000000E+00    .3906250762939E+02    .1074218994141E+04    .2148437957764E+03
 OPTDRV    SHIFT FROM FORWARD TO CENTRAL DIFFERENCES IN ITERATION    96
0OPTSTP    LAST GLOBAL STEP FAILED TO LOCATE A POINT LOWER THAN X.
 OPTSTP    EITHER X IS AN APPROXIMATE LOCAL MINIMUM OF THE FUNCTION,
 OPTSTP    THE FUNCTION IS TOO NON-LINEAR FOR THIS ALGORITHM,
 OPTSTP    OR STEPTL IS TOO LARGE.

0RESULT    ITERATE K=  106
 RESULT       X(K)
 RESULT                   .9996908307076E+00    .9994752407074E+00    .9997428655624E+00    .9995896220207E+00
 RESULT       FUNCTION AT X(K)
 RESULT                   .1075159252650E-04
 RESULT       GRADIENT AT X(K)
 RESULT                   .2015382284299E-02   -.3357418245287E-04   -.1898035639897E-02    .1569278720126E-04
 OPTEST    #FCN  EVAL =      2130
 OPTEST    GRAD EVAL =          0
 OPTEST    HSN  EVAL =          0
 OPTEST    EXEC TIME =     1.0000 SEC
1
0OPTDRV    TYPICAL X
 OPTDRV         .1000000000000E+01     .1000000000000E+01     .1000000000000E+01     .1000000000000E+01
 OPTDRV    DIAGONAL SCALING MATRIX FOR X
 OPTDRV         .1000000000000E+01     .1000000000000E+01     .1000000000000E+01     .1000000000000E+01
 OPTDRV    TYPICAL F =  .1000000000000E+01
0OPTDRV    NUMBER OF GOOD DIGITS IN FCN=    6
 OPTDRV    GRADIENT FLAG  =    0   (=1 IF ANALYTIC GRADIENT SUPPLIED)
 OPTDRV    HESSIAN FLAG   =    0   (=1 IF ANALYTIC HESSIAN SUPPLIED)
 OPTDRV    EXPENSE FLAG   =    1   (=1 IF MINIMIZATION FUNCTION EXPENSIVE TO EVALUATE)
 OPTDRV    METHOD TO USE  =    3   (=1,2,3 FOR LINE SEARCH, DOUBLE DOGLEG, MORE-HEBDON RESPECTIVELY)
 OPTDRV    ITERATION LIMIT=  500
 OPTDRV    MACHINE EPSILON=  .1192092895508E-06
0OPTDRV    MAXIMUM STEP SIZE =  .4472136230469E+04
 OPTDRV    STEP TOLERANCE    =  .1000000013351E-09
 OPTDRV    GRADIENT TOLERANCE=  .1000000013351E-09
 OPTDRV    TRUST REG RADIUS  = -.1000000000000E+01
 OPTDRV    REL NOISE IN FCN  =  .9999999974752E-06
 OPTDRV    ANAL-FD TOLERANCE =  .9999999776483E-02

0RESULT    ITERATE K=    0
 RESULT       STEP
 RESULT                   .0000000000000E+00    .0000000000000E+00    .0000000000000E+00    .0000000000000E+00
 RESULT       X(K)
 RESULT                  -.3000000000000E+01   -.1000000000000E+01   -.3000000000000E+01   -.1000000000000E+01
 RESULT       FUNCTION AT X(K)
 RESULT                   .1919200000000E+05
 RESULT       GRADIENT AT X(K)
 RESULT                  -.1199088574219E+05   -.2080078125000E+04   -.1079296875000E+05   -.1880859252930E+04
 RESULT       HESSIAN AT X(K)
 RESULT     ROW    1
 RESULT           .1000000000000E+01
 RESULT     ROW    2
 RESULT           .0000000000000E+00    .1000000000000E+01
 RESULT     ROW    3
 RESULT           .0000000000000E+00    .0000000000000E+00    .1000000000000E+01
 RESULT     ROW    4
 RESULT           .0000000000000E+00    .0000000000000E+00    .0000000000000E+00    .1000000000000E+01
 OPTDRV    SHIFT FROM FORWARD TO CENTRAL DIFFERENCES IN ITERATION    38
0OPTSTP    LAST GLOBAL STEP FAILED TO LOCATE A POINT LOWER THAN X.
 OPTSTP    EITHER X IS AN APPROXIMATE LOCAL MINIMUM OF THE FUNCTION,
 OPTSTP    THE FUNCTION IS TOO NON-LINEAR FOR THIS ALGORITHM,
 OPTSTP    OR STEPTL IS TOO LARGE.

0RESULT    ITERATE K=   46
 RESULT       X(K)
 RESULT                   .9927548766136E+00    .9856262207031E+00    .1006761193275E+01    .1013654351234E+01
 RESULT       FUNCTION AT X(K)
 RESULT                   .1830186229199E-03
 RESULT       GRADIENT AT X(K)
 RESULT                  -.1586973812664E-03   -.7203082554042E-02    .1899867877364E-01    .6752370856702E-02
 OPTEST    #FCN  EVAL =       319
 OPTEST    GRAD EVAL =          0
 OPTEST    HSN  EVAL =          0
 OPTEST    EXEC TIME =     1.0000 SEC
1
0OPTDRV    TYPICAL X
 OPTDRV         .1000000000000E+01     .1000000000000E+01     .1000000000000E+01     .1000000000000E+01
 OPTDRV    DIAGONAL SCALING MATRIX FOR X
 OPTDRV         .1000000000000E+01     .1000000000000E+01     .1000000000000E+01     .1000000000000E+01
 OPTDRV    TYPICAL F =  .1000000000000E+01
0OPTDRV    NUMBER OF GOOD DIGITS IN FCN=    6
 OPTDRV    GRADIENT FLAG  =    0   (=1 IF ANALYTIC GRADIENT SUPPLIED)
 OPTDRV    HESSIAN FLAG   =    0   (=1 IF ANALYTIC HESSIAN SUPPLIED)
 OPTDRV    EXPENSE FLAG   =    0   (=1 IF MINIMIZATION FUNCTION EXPENSIVE TO EVALUATE)
 OPTDRV    METHOD TO USE  =    1   (=1,2,3 FOR LINE SEARCH, DOUBLE DOGLEG, MORE-HEBDON RESPECTIVELY)
 OPTDRV    ITERATION LIMIT=  500
 OPTDRV    MACHINE EPSILON=  .1192092895508E-06
0OPTDRV    MAXIMUM STEP SIZE =  .4472135937500E+05
 OPTDRV    STEP TOLERANCE    =  .1000000013351E-09
 OPTDRV    GRADIENT TOLERANCE=  .1000000013351E-09
 OPTDRV    TRUST REG RADIUS  = -.1000000000000E+01
 OPTDRV    REL NOISE IN FCN  =  .9999999974752E-06
 OPTDRV    ANAL-FD TOLERANCE =  .9999999776483E-02

0RESULT    ITERATE K=    0
 RESULT       STEP
 RESULT                   .0000000000000E+00    .0000000000000E+00    .0000000000000E+00    .0000000000000E+00
 RESULT       X(K)
 RESULT                  -.3000000000000E+02   -.1000000000000E+02   -.3000000000000E+02   -.1000000000000E+02
 RESULT       FUNCTION AT X(K)
 RESULT                   .1573457760000E+09
 RESULT       GRADIENT AT X(K)
 RESULT                  -.1090453400000E+08   -.1824000000000E+06   -.9813867000000E+07   -.1648000000000E+06
 RESULT       HESSIAN AT X(K)
 RESULT     ROW    1
 RESULT           .1062222500000E+07
 RESULT     ROW    2
 RESULT           .1173333691406E+05    .3200000976562E+04
 RESULT     ROW    3
 RESULT           .0000000000000E+00    .1066666992188E+04    .9564447500000E+06
 RESULT     ROW    4
 RESULT           .0000000000000E+00    .4800001464844E+04    .1120000292969E+05    .3200000976562E+04
0OPTSTP    SUCCESSIVE ITERATES WITHIN TOLERANCE.
 OPTSTP    CURRENT ITERATE IS PROBABLY SOLUTION.

0RESULT    ITERATE K=  152
 RESULT       X(K)
 RESULT                   .9886561036110E+00    .9783752560616E+00    .1003014206886E+01    .1007063508034E+01
 RESULT       FUNCTION AT X(K)
 RESULT                   .2522417809814E-02
 RESULT       GRADIENT AT X(K)
 RESULT                  -.1490116028435E-04    .8149072527885E-05   -.9749500350154E-05    .7860717232688E-05
 OPTEST    #FCN  EVAL =      2900
 OPTEST    GRAD EVAL =          0
 OPTEST    HSN  EVAL =          0
 OPTEST    EXEC TIME =     1.0000 SEC
1
0OPTDRV    TYPICAL X
 OPTDRV         .1000000000000E+01     .1000000000000E+01     .1000000000000E+01     .1000000000000E+01
 OPTDRV    DIAGONAL SCALING MATRIX FOR X
 OPTDRV         .1000000000000E+01     .1000000000000E+01     .1000000000000E+01     .1000000000000E+01
 OPTDRV    TYPICAL F =  .1000000000000E+01
0OPTDRV    NUMBER OF GOOD DIGITS IN FCN=    6
 OPTDRV    GRADIENT FLAG  =    0   (=1 IF ANALYTIC GRADIENT SUPPLIED)
 OPTDRV    HESSIAN FLAG   =    0   (=1 IF ANALYTIC HESSIAN SUPPLIED)
 OPTDRV    EXPENSE FLAG   =    1   (=1 IF MINIMIZATION FUNCTION EXPENSIVE TO EVALUATE)
 OPTDRV    METHOD TO USE  =    1   (=1,2,3 FOR LINE SEARCH, DOUBLE DOGLEG, MORE-HEBDON RESPECTIVELY)
 OPTDRV    ITERATION LIMIT=  500
 OPTDRV    MACHINE EPSILON=  .1192092895508E-06
0OPTDRV    MAXIMUM STEP SIZE =  .4472135937500E+05
 OPTDRV    STEP TOLERANCE    =  .1000000013351E-09
 OPTDRV    GRADIENT TOLERANCE=  .1000000013351E-09
 OPTDRV    TRUST REG RADIUS  = -.1000000000000E+01
 OPTDRV    REL NOISE IN FCN  =  .9999999974752E-06
 OPTDRV    ANAL-FD TOLERANCE =  .9999999776483E-02

0RESULT    ITERATE K=    0
 RESULT       STEP
 RESULT                   .0000000000000E+00    .0000000000000E+00    .0000000000000E+00    .0000000000000E+00
 RESULT       X(K)
 RESULT                  -.3000000000000E+02   -.1000000000000E+02   -.3000000000000E+02   -.1000000000000E+02
 RESULT       FUNCTION AT X(K)
 RESULT                   .1573457760000E+09
 RESULT       GRADIENT AT X(K)
 RESULT                  -.1090453400000E+08   -.1824000000000E+06   -.9813867000000E+07   -.1648000000000E+06
 RESULT       HESSIAN AT X(K)
 RESULT     ROW    1
 RESULT           .1000000000000E+01
 RESULT     ROW    2
 RESULT           .0000000000000E+00    .1000000000000E+01
 RESULT     ROW    3
 RESULT           .0000000000000E+00    .0000000000000E+00    .1000000000000E+01
 RESULT     ROW    4
 RESULT           .0000000000000E+00    .0000000000000E+00    .0000000000000E+00    .1000000000000E+01
0OPTSTP    SUCCESSIVE ITERATES WITHIN TOLERANCE.
 OPTSTP    CURRENT ITERATE IS PROBABLY SOLUTION.

0RESULT    ITERATE K=   38
 RESULT       X(K)
 RESULT                   .1121226429939E+01    .1258933424950E+01    .8523505330086E+00    .7263994216919E+00
 RESULT       FUNCTION AT X(K)
 RESULT                   .6732606887817E-01
 RESULT       GRADIENT AT X(K)
 RESULT                   .7229789625853E-02    .3087863624096E+00   -.1072883605957E-02   -.3179311454296E+00
 OPTEST    #FCN  EVAL =       203
 OPTEST    GRAD EVAL =          0
 OPTEST    HSN  EVAL =          0
 OPTEST    EXEC TIME =     1.0000 SEC
1
0OPTDRV    TYPICAL X
 OPTDRV         .1000000000000E+01     .1000000000000E+01     .1000000000000E+01     .1000000000000E+01
 OPTDRV    DIAGONAL SCALING MATRIX FOR X
 OPTDRV         .1000000000000E+01     .1000000000000E+01     .1000000000000E+01     .1000000000000E+01
 OPTDRV    TYPICAL F =  .1000000000000E+01
0OPTDRV    NUMBER OF GOOD DIGITS IN FCN=    6
 OPTDRV    GRADIENT FLAG  =    0   (=1 IF ANALYTIC GRADIENT SUPPLIED)
 OPTDRV    HESSIAN FLAG   =    0   (=1 IF ANALYTIC HESSIAN SUPPLIED)
 OPTDRV    EXPENSE FLAG   =    0   (=1 IF MINIMIZATION FUNCTION EXPENSIVE TO EVALUATE)
 OPTDRV    METHOD TO USE  =    2   (=1,2,3 FOR LINE SEARCH, DOUBLE DOGLEG, MORE-HEBDON RESPECTIVELY)
 OPTDRV    ITERATION LIMIT=  500
 OPTDRV    MACHINE EPSILON=  .1192092895508E-06
0OPTDRV    MAXIMUM STEP SIZE =  .4472135937500E+05
 OPTDRV    STEP TOLERANCE    =  .1000000013351E-09
 OPTDRV    GRADIENT TOLERANCE=  .1000000013351E-09
 OPTDRV    TRUST REG RADIUS  = -.1000000000000E+01
 OPTDRV    REL NOISE IN FCN  =  .9999999974752E-06
 OPTDRV    ANAL-FD TOLERANCE =  .9999999776483E-02

0RESULT    ITERATE K=    0
 RESULT       STEP
 RESULT                   .0000000000000E+00    .0000000000000E+00    .0000000000000E+00    .0000000000000E+00
 RESULT       X(K)
 RESULT                  -.3000000000000E+02   -.1000000000000E+02   -.3000000000000E+02   -.1000000000000E+02
 RESULT       FUNCTION AT X(K)
 RESULT                   .1573457760000E+09
 RESULT       GRADIENT AT X(K)
 RESULT                  -.1090453400000E+08   -.1824000000000E+06   -.9813867000000E+07   -.1648000000000E+06
 RESULT       HESSIAN AT X(K)
 RESULT     ROW    1
 RESULT           .1062222500000E+07
 RESULT     ROW    2
 RESULT           .1173333691406E+05    .3200000976562E+04
 RESULT     ROW    3
 RESULT           .0000000000000E+00    .1066666992188E+04    .9564447500000E+06
 RESULT     ROW    4
 RESULT           .0000000000000E+00    .4800001464844E+04    .1120000292969E+05    .3200000976562E+04
 OPTDRV    SHIFT FROM FORWARD TO CENTRAL DIFFERENCES IN ITERATION   152
0OPTSTP    LAST GLOBAL STEP FAILED TO LOCATE A POINT LOWER THAN X.
 OPTSTP    EITHER X IS AN APPROXIMATE LOCAL MINIMUM OF THE FUNCTION,
 OPTSTP    THE FUNCTION IS TOO NON-LINEAR FOR THIS ALGORITHM,
 OPTSTP    OR STEPTL IS TOO LARGE.

0RESULT    ITERATE K=  188
 RESULT       X(K)
 RESULT                   .9991515278816E+00    .9983996748924E+00    .1000281333923E+01    .1000664114952E+01
 RESULT       FUNCTION AT X(K)
 RESULT                   .1192053787236E-04
 RESULT       GRADIENT AT X(K)
 RESULT                  -.2942979699583E-04    .1019798310153E-04    .1119134976761E-03   -.3229544745409E-04
 OPTEST    #FCN  EVAL =      3772
 OPTEST    GRAD EVAL =          0
 OPTEST    HSN  EVAL =          0
 OPTEST    EXEC TIME =     1.0000 SEC
1
0OPTDRV    TYPICAL X
 OPTDRV         .1000000000000E+01     .1000000000000E+01     .1000000000000E+01     .1000000000000E+01
 OPTDRV    DIAGONAL SCALING MATRIX FOR X
 OPTDRV         .1000000000000E+01     .1000000000000E+01     .1000000000000E+01     .1000000000000E+01
 OPTDRV    TYPICAL F =  .1000000000000E+01
0OPTDRV    NUMBER OF GOOD DIGITS IN FCN=    6
 OPTDRV    GRADIENT FLAG  =    0   (=1 IF ANALYTIC GRADIENT SUPPLIED)
 OPTDRV    HESSIAN FLAG   =    0   (=1 IF ANALYTIC HESSIAN SUPPLIED)
 OPTDRV    EXPENSE FLAG   =    1   (=1 IF MINIMIZATION FUNCTION EXPENSIVE TO EVALUATE)
 OPTDRV    METHOD TO USE  =    2   (=1,2,3 FOR LINE SEARCH, DOUBLE DOGLEG, MORE-HEBDON RESPECTIVELY)
 OPTDRV    ITERATION LIMIT=  500
 OPTDRV    MACHINE EPSILON=  .1192092895508E-06
0OPTDRV    MAXIMUM STEP SIZE =  .4472135937500E+05
 OPTDRV    STEP TOLERANCE    =  .1000000013351E-09
 OPTDRV    GRADIENT TOLERANCE=  .1000000013351E-09
 OPTDRV    TRUST REG RADIUS  = -.1000000000000E+01
 OPTDRV    REL NOISE IN FCN  =  .9999999974752E-06
 OPTDRV    ANAL-FD TOLERANCE =  .9999999776483E-02

0RESULT    ITERATE K=    0
 RESULT       STEP
 RESULT                   .0000000000000E+00    .0000000000000E+00    .0000000000000E+00    .0000000000000E+00
 RESULT       X(K)
 RESULT                  -.3000000000000E+02   -.1000000000000E+02   -.3000000000000E+02   -.1000000000000E+02
 RESULT       FUNCTION AT X(K)
 RESULT                   .1573457760000E+09
 RESULT       GRADIENT AT X(K)
 RESULT                  -.1090453400000E+08   -.1824000000000E+06   -.9813867000000E+07   -.1648000000000E+06
 RESULT       HESSIAN AT X(K)
 RESULT     ROW    1
 RESULT           .1000000000000E+01
 RESULT     ROW    2
 RESULT           .0000000000000E+00    .1000000000000E+01
 RESULT     ROW    3
 RESULT           .0000000000000E+00    .0000000000000E+00    .1000000000000E+01
 RESULT     ROW    4
 RESULT           .0000000000000E+00    .0000000000000E+00    .0000000000000E+00    .1000000000000E+01
 OPTDRV    SHIFT FROM FORWARD TO CENTRAL DIFFERENCES IN ITERATION    72
0OPTSTP    LAST GLOBAL STEP FAILED TO LOCATE A POINT LOWER THAN X.
 OPTSTP    EITHER X IS AN APPROXIMATE LOCAL MINIMUM OF THE FUNCTION,
 OPTSTP    THE FUNCTION IS TOO NON-LINEAR FOR THIS ALGORITHM,
 OPTSTP    OR STEPTL IS TOO LARGE.

0RESULT    ITERATE K=  103
 RESULT       X(K)
 RESULT                   .9992328882217E+00    .9985572695732E+00    .1000214338303E+01    .1000532984734E+01
 RESULT       FUNCTION AT X(K)
 RESULT                   .1110656558012E-04
 RESULT       GRADIENT AT X(K)
 RESULT                   .2099015051499E-02   -.4040543572046E-03   -.1084386021830E-02    .9756924118847E-03
 OPTEST    #FCN  EVAL =       712
 OPTEST    GRAD EVAL =          0
 OPTEST    HSN  EVAL =          0
 OPTEST    EXEC TIME =     1.0000 SEC
1
0OPTDRV    TYPICAL X
 OPTDRV         .1000000000000E+01     .1000000000000E+01     .1000000000000E+01     .1000000000000E+01
 OPTDRV    DIAGONAL SCALING MATRIX FOR X
 OPTDRV         .1000000000000E+01     .1000000000000E+01     .1000000000000E+01     .1000000000000E+01
 OPTDRV    TYPICAL F =  .1000000000000E+01
0OPTDRV    NUMBER OF GOOD DIGITS IN FCN=    6
 OPTDRV    GRADIENT FLAG  =    0   (=1 IF ANALYTIC GRADIENT SUPPLIED)
 OPTDRV    HESSIAN FLAG   =    0   (=1 IF ANALYTIC HESSIAN SUPPLIED)
 OPTDRV    EXPENSE FLAG   =    0   (=1 IF MINIMIZATION FUNCTION EXPENSIVE TO EVALUATE)
 OPTDRV    METHOD TO USE  =    3   (=1,2,3 FOR LINE SEARCH, DOUBLE DOGLEG, MORE-HEBDON RESPECTIVELY)
 OPTDRV    ITERATION LIMIT=  500
 OPTDRV    MACHINE EPSILON=  .1192092895508E-06
0OPTDRV    MAXIMUM STEP SIZE =  .4472135937500E+05
 OPTDRV    STEP TOLERANCE    =  .1000000013351E-09
 OPTDRV    GRADIENT TOLERANCE=  .1000000013351E-09
 OPTDRV    TRUST REG RADIUS  = -.1000000000000E+01
 OPTDRV    REL NOISE IN FCN  =  .9999999974752E-06
 OPTDRV    ANAL-FD TOLERANCE =  .9999999776483E-02

0RESULT    ITERATE K=    0
 RESULT       STEP
 RESULT                   .0000000000000E+00    .0000000000000E+00    .0000000000000E+00    .0000000000000E+00
 RESULT       X(K)
 RESULT                  -.3000000000000E+02   -.1000000000000E+02   -.3000000000000E+02   -.1000000000000E+02
 RESULT       FUNCTION AT X(K)
 RESULT                   .1573457760000E+09
 RESULT       GRADIENT AT X(K)
 RESULT                  -.1090453400000E+08   -.1824000000000E+06   -.9813867000000E+07   -.1648000000000E+06
 RESULT       HESSIAN AT X(K)
 RESULT     ROW    1
 RESULT           .1062222500000E+07
 RESULT     ROW    2
 RESULT           .1173333691406E+05    .3200000976562E+04
 RESULT     ROW    3
 RESULT           .0000000000000E+00    .1066666992188E+04    .9564447500000E+06
 RESULT     ROW    4
 RESULT           .0000000000000E+00    .4800001464844E+04    .1120000292969E+05    .3200000976562E+04
 OPTDRV    SHIFT FROM FORWARD TO CENTRAL DIFFERENCES IN ITERATION   130
0OPTSTP    LAST GLOBAL STEP FAILED TO LOCATE A POINT LOWER THAN X.
 OPTSTP    EITHER X IS AN APPROXIMATE LOCAL MINIMUM OF THE FUNCTION,
 OPTSTP    THE FUNCTION IS TOO NON-LINEAR FOR THIS ALGORITHM,
 OPTSTP    OR STEPTL IS TOO LARGE.

0RESULT    ITERATE K=  163
 RESULT       X(K)
 RESULT                   .9991520047188E+00    .9984006881714E+00    .1000280857086E+01    .1000663280487E+01
 RESULT       FUNCTION AT X(K)
 RESULT                   .1191859155369E-04
 RESULT       GRADIENT AT X(K)
 RESULT                  -.5215407145442E-04    .1946464362845E-04    .6815368396929E-04   -.1675269686530E-05
 OPTEST    #FCN  EVAL =      3283
 OPTEST    GRAD EVAL =          0
 OPTEST    HSN  EVAL =          0
 OPTEST    EXEC TIME =     1.0000 SEC
1
0OPTDRV    TYPICAL X
 OPTDRV         .1000000000000E+01     .1000000000000E+01     .1000000000000E+01     .1000000000000E+01
 OPTDRV    DIAGONAL SCALING MATRIX FOR X
 OPTDRV         .1000000000000E+01     .1000000000000E+01     .1000000000000E+01     .1000000000000E+01
 OPTDRV    TYPICAL F =  .1000000000000E+01
0OPTDRV    NUMBER OF GOOD DIGITS IN FCN=    6
 OPTDRV    GRADIENT FLAG  =    0   (=1 IF ANALYTIC GRADIENT SUPPLIED)
 OPTDRV    HESSIAN FLAG   =    0   (=1 IF ANALYTIC HESSIAN SUPPLIED)
 OPTDRV    EXPENSE FLAG   =    1   (=1 IF MINIMIZATION FUNCTION EXPENSIVE TO EVALUATE)
 OPTDRV    METHOD TO USE  =    3   (=1,2,3 FOR LINE SEARCH, DOUBLE DOGLEG, MORE-HEBDON RESPECTIVELY)
 OPTDRV    ITERATION LIMIT=  500
 OPTDRV    MACHINE EPSILON=  .1192092895508E-06
0OPTDRV    MAXIMUM STEP SIZE =  .4472135937500E+05
 OPTDRV    STEP TOLERANCE    =  .1000000013351E-09
 OPTDRV    GRADIENT TOLERANCE=  .1000000013351E-09
 OPTDRV    TRUST REG RADIUS  = -.1000000000000E+01
 OPTDRV    REL NOISE IN FCN  =  .9999999974752E-06
 OPTDRV    ANAL-FD TOLERANCE =  .9999999776483E-02

0RESULT    ITERATE K=    0
 RESULT       STEP
 RESULT                   .0000000000000E+00    .0000000000000E+00    .0000000000000E+00    .0000000000000E+00
 RESULT       X(K)
 RESULT                  -.3000000000000E+02   -.1000000000000E+02   -.3000000000000E+02   -.1000000000000E+02
 RESULT       FUNCTION AT X(K)
 RESULT                   .1573457760000E+09
 RESULT       GRADIENT AT X(K)
 RESULT                  -.1090453400000E+08   -.1824000000000E+06   -.9813867000000E+07   -.1648000000000E+06
 RESULT       HESSIAN AT X(K)
 RESULT     ROW    1
 RESULT           .1000000000000E+01
 RESULT     ROW    2
 RESULT           .0000000000000E+00    .1000000000000E+01
 RESULT     ROW    3
 RESULT           .0000000000000E+00    .0000000000000E+00    .1000000000000E+01
 RESULT     ROW    4
 RESULT           .0000000000000E+00    .0000000000000E+00    .0000000000000E+00    .1000000000000E+01
 OPTDRV    SHIFT FROM FORWARD TO CENTRAL DIFFERENCES IN ITERATION    71
0OPTSTP    LAST GLOBAL STEP FAILED TO LOCATE A POINT LOWER THAN X.
 OPTSTP    EITHER X IS AN APPROXIMATE LOCAL MINIMUM OF THE FUNCTION,
 OPTSTP    THE FUNCTION IS TOO NON-LINEAR FOR THIS ALGORITHM,
 OPTSTP    OR STEPTL IS TOO LARGE.

0RESULT    ITERATE K=   89
 RESULT       X(K)
 RESULT                   .9872018694878E+00    .9745799899101E+00    .1012101650238E+01    .1024482965469E+01
 RESULT       FUNCTION AT X(K)
 RESULT                   .5696648731828E-03
 RESULT       GRADIENT AT X(K)
 RESULT                   .8967333473265E-02   -.2622995898128E-01    .1299745682627E-01    .1520803850144E-01
 OPTEST    #FCN  EVAL =       611
 OPTEST    GRAD EVAL =          0
 OPTEST    HSN  EVAL =          0
 OPTEST    EXEC TIME =     1.0000 SEC
1
0OPTDRV    TYPICAL X
 OPTDRV         .1000000000000E+01     .1000000000000E+01     .1000000000000E+01     .1000000000000E+01
 OPTDRV    DIAGONAL SCALING MATRIX FOR X
 OPTDRV         .1000000000000E+01     .1000000000000E+01     .1000000000000E+01     .1000000000000E+01
 OPTDRV    TYPICAL F =  .1000000000000E+01
0OPTDRV    NUMBER OF GOOD DIGITS IN FCN=    6
 OPTDRV    GRADIENT FLAG  =    0   (=1 IF ANALYTIC GRADIENT SUPPLIED)
 OPTDRV    HESSIAN FLAG   =    0   (=1 IF ANALYTIC HESSIAN SUPPLIED)
 OPTDRV    EXPENSE FLAG   =    0   (=1 IF MINIMIZATION FUNCTION EXPENSIVE TO EVALUATE)
 OPTDRV    METHOD TO USE  =    1   (=1,2,3 FOR LINE SEARCH, DOUBLE DOGLEG, MORE-HEBDON RESPECTIVELY)
 OPTDRV    ITERATION LIMIT=  500
 OPTDRV    MACHINE EPSILON=  .1192092895508E-06
0OPTDRV    MAXIMUM STEP SIZE =  .4472135937500E+06
 OPTDRV    STEP TOLERANCE    =  .1000000013351E-09
 OPTDRV    GRADIENT TOLERANCE=  .1000000013351E-09
 OPTDRV    TRUST REG RADIUS  = -.1000000000000E+01
 OPTDRV    REL NOISE IN FCN  =  .9999999974752E-06
 OPTDRV    ANAL-FD TOLERANCE =  .9999999776483E-02

0RESULT    ITERATE K=    0
 RESULT       STEP
 RESULT                   .0000000000000E+00    .0000000000000E+00    .0000000000000E+00    .0000000000000E+00
 RESULT       X(K)
 RESULT                  -.3000000000000E+03   -.1000000000000E+03   -.3000000000000E+03   -.1000000000000E+03
 RESULT       FUNCTION AT X(K)
 RESULT                   .1542422659072E+13
 RESULT       GRADIENT AT X(K)
 RESULT                  -.1079596339200E+11   -.1835008000000E+08   -.9715930112000E+10   -.1703936000000E+08
 RESULT       HESSIAN AT X(K)
 RESULT     ROW    1
 RESULT           .1059062080000E+09
 RESULT     ROW    2
 RESULT           .1310720312500E+06    .0000000000000E+00
 RESULT     ROW    3
 RESULT           .0000000000000E+00    .0000000000000E+00    .9528937600000E+08
 RESULT     ROW    4
 RESULT           .0000000000000E+00    .0000000000000E+00    .8738135156250E+05    .0000000000000E+00
0OPTSTP    SUCCESSIVE ITERATES WITHIN TOLERANCE.
 OPTSTP    CURRENT ITERATE IS PROBABLY SOLUTION.

0RESULT    ITERATE K=   93
 RESULT       X(K)
 RESULT                   .9886556267738E+00    .9783744215965E+00    .1003014683723E+01    .1007064461708E+01
 RESULT       FUNCTION AT X(K)
 RESULT                   .2522428985685E-02
 RESULT       GRADIENT AT X(K)
 RESULT                  -.6286427378654E-04    .3492459654808E-04   -.8820971743262E-05    .1040388087858E-04
 OPTEST    #FCN  EVAL =      1782
 OPTEST    GRAD EVAL =          0
 OPTEST    HSN  EVAL =          0
 OPTEST    EXEC TIME =     1.0000 SEC
1
0OPTDRV    TYPICAL X
 OPTDRV         .1000000000000E+01     .1000000000000E+01     .1000000000000E+01     .1000000000000E+01
 OPTDRV    DIAGONAL SCALING MATRIX FOR X
 OPTDRV         .1000000000000E+01     .1000000000000E+01     .1000000000000E+01     .1000000000000E+01
 OPTDRV    TYPICAL F =  .1000000000000E+01
0OPTDRV    NUMBER OF GOOD DIGITS IN FCN=    6
 OPTDRV    GRADIENT FLAG  =    0   (=1 IF ANALYTIC GRADIENT SUPPLIED)
 OPTDRV    HESSIAN FLAG   =    0   (=1 IF ANALYTIC HESSIAN SUPPLIED)
 OPTDRV    EXPENSE FLAG   =    1   (=1 IF MINIMIZATION FUNCTION EXPENSIVE TO EVALUATE)
 OPTDRV    METHOD TO USE  =    1   (=1,2,3 FOR LINE SEARCH, DOUBLE DOGLEG, MORE-HEBDON RESPECTIVELY)
 OPTDRV    ITERATION LIMIT=  500
 OPTDRV    MACHINE EPSILON=  .1192092895508E-06
0OPTDRV    MAXIMUM STEP SIZE =  .4472135937500E+06
 OPTDRV    STEP TOLERANCE    =  .1000000013351E-09
 OPTDRV    GRADIENT TOLERANCE=  .1000000013351E-09
 OPTDRV    TRUST REG RADIUS  = -.1000000000000E+01
 OPTDRV    REL NOISE IN FCN  =  .9999999974752E-06
 OPTDRV    ANAL-FD TOLERANCE =  .9999999776483E-02

0RESULT    ITERATE K=    0
 RESULT       STEP
 RESULT                   .0000000000000E+00    .0000000000000E+00    .0000000000000E+00    .0000000000000E+00
 RESULT       X(K)
 RESULT                  -.3000000000000E+03   -.1000000000000E+03   -.3000000000000E+03   -.1000000000000E+03
 RESULT       FUNCTION AT X(K)
 RESULT                   .1542422659072E+13
 RESULT       GRADIENT AT X(K)
 RESULT                  -.1079596339200E+11   -.1835008000000E+08   -.9715930112000E+10   -.1703936000000E+08
 RESULT       HESSIAN AT X(K)
 RESULT     ROW    1
 RESULT           .1000000000000E+01
 RESULT     ROW    2
 RESULT           .0000000000000E+00    .1000000000000E+01
 RESULT     ROW    3
 RESULT           .0000000000000E+00    .0000000000000E+00    .1000000000000E+01
 RESULT     ROW    4
 RESULT           .0000000000000E+00    .0000000000000E+00    .0000000000000E+00    .1000000000000E+01
0OPTSTP    SUCCESSIVE ITERATES WITHIN TOLERANCE.
 OPTSTP    CURRENT ITERATE IS PROBABLY SOLUTION.

0RESULT    ITERATE K=  350
 RESULT       X(K)
 RESULT                   .1001084208488E+01    .1000991106033E+01    .9950540065765E+00    .9898604154587E+00
 RESULT       FUNCTION AT X(K)
 RESULT                   .1020521391183E-02
 RESULT       GRADIENT AT X(K)
 RESULT                   .8770201802254E+00   -.3062365353107E+00    .4454054534435E+00   -.1340614855289E+00
 OPTEST    #FCN  EVAL =      4759
 OPTEST    GRAD EVAL =          0
 OPTEST    HSN  EVAL =          0
 OPTEST    EXEC TIME =     1.0000 SEC
1
0OPTDRV    TYPICAL X
 OPTDRV         .1000000000000E+01     .1000000000000E+01     .1000000000000E+01     .1000000000000E+01
 OPTDRV    DIAGONAL SCALING MATRIX FOR X
 OPTDRV         .1000000000000E+01     .1000000000000E+01     .1000000000000E+01     .1000000000000E+01
 OPTDRV    TYPICAL F =  .1000000000000E+01
0OPTDRV    NUMBER OF GOOD DIGITS IN FCN=    6
 OPTDRV    GRADIENT FLAG  =    0   (=1 IF ANALYTIC GRADIENT SUPPLIED)
 OPTDRV    HESSIAN FLAG   =    0   (=1 IF ANALYTIC HESSIAN SUPPLIED)
 OPTDRV    EXPENSE FLAG   =    0   (=1 IF MINIMIZATION FUNCTION EXPENSIVE TO EVALUATE)
 OPTDRV    METHOD TO USE  =    2   (=1,2,3 FOR LINE SEARCH, DOUBLE DOGLEG, MORE-HEBDON RESPECTIVELY)
 OPTDRV    ITERATION LIMIT=  500
 OPTDRV    MACHINE EPSILON=  .1192092895508E-06
0OPTDRV    MAXIMUM STEP SIZE =  .4472135937500E+06
 OPTDRV    STEP TOLERANCE    =  .1000000013351E-09
 OPTDRV    GRADIENT TOLERANCE=  .1000000013351E-09
 OPTDRV    TRUST REG RADIUS  = -.1000000000000E+01
 OPTDRV    REL NOISE IN FCN  =  .9999999974752E-06
 OPTDRV    ANAL-FD TOLERANCE =  .9999999776483E-02

0RESULT    ITERATE K=    0
 RESULT       STEP
 RESULT                   .0000000000000E+00    .0000000000000E+00    .0000000000000E+00    .0000000000000E+00
 RESULT       X(K)
 RESULT                  -.3000000000000E+03   -.1000000000000E+03   -.3000000000000E+03   -.1000000000000E+03
 RESULT       FUNCTION AT X(K)
 RESULT                   .1542422659072E+13
 RESULT       GRADIENT AT X(K)
 RESULT                  -.1079596339200E+11   -.1835008000000E+08   -.9715930112000E+10   -.1703936000000E+08
 RESULT       HESSIAN AT X(K)
 RESULT     ROW    1
 RESULT           .1059062080000E+09
 RESULT     ROW    2
 RESULT           .1310720312500E+06    .0000000000000E+00
 RESULT     ROW    3
 RESULT           .0000000000000E+00    .0000000000000E+00    .9528937600000E+08
 RESULT     ROW    4
 RESULT           .0000000000000E+00    .0000000000000E+00    .8738135156250E+05    .0000000000000E+00
 OPTDRV    SHIFT FROM FORWARD TO CENTRAL DIFFERENCES IN ITERATION    80
0OPTSTP    LAST GLOBAL STEP FAILED TO LOCATE A POINT LOWER THAN X.
 OPTSTP    EITHER X IS AN APPROXIMATE LOCAL MINIMUM OF THE FUNCTION,
 OPTSTP    THE FUNCTION IS TOO NON-LINEAR FOR THIS ALGORITHM,
 OPTSTP    OR STEPTL IS TOO LARGE.

0RESULT    ITERATE K=   95
 RESULT       X(K)
 RESULT                   .9993826746941E+00    .9988623261452E+00    .1000050544739E+01    .1000201463699E+01
 RESULT       FUNCTION AT X(K)
 RESULT                   .1116814473789E-04
 RESULT       GRADIENT AT X(K)
 RESULT                   .1354143169010E-03    .3383960865904E-03   -.5997415428283E-04   -.3889816871379E-03
 OPTEST    #FCN  EVAL =      1937
 OPTEST    GRAD EVAL =          0
 OPTEST    HSN  EVAL =          0
 OPTEST    EXEC TIME =     1.0000 SEC
1
0OPTDRV    TYPICAL X
 OPTDRV         .1000000000000E+01     .1000000000000E+01     .1000000000000E+01     .1000000000000E+01
 OPTDRV    DIAGONAL SCALING MATRIX FOR X
 OPTDRV         .1000000000000E+01     .1000000000000E+01     .1000000000000E+01     .1000000000000E+01
 OPTDRV    TYPICAL F =  .1000000000000E+01
0OPTDRV    NUMBER OF GOOD DIGITS IN FCN=    6
 OPTDRV    GRADIENT FLAG  =    0   (=1 IF ANALYTIC GRADIENT SUPPLIED)
 OPTDRV    HESSIAN FLAG   =    0   (=1 IF ANALYTIC HESSIAN SUPPLIED)
 OPTDRV    EXPENSE FLAG   =    1   (=1 IF MINIMIZATION FUNCTION EXPENSIVE TO EVALUATE)
 OPTDRV    METHOD TO USE  =    2   (=1,2,3 FOR LINE SEARCH, DOUBLE DOGLEG, MORE-HEBDON RESPECTIVELY)
 OPTDRV    ITERATION LIMIT=  500
 OPTDRV    MACHINE EPSILON=  .1192092895508E-06
0OPTDRV    MAXIMUM STEP SIZE =  .4472135937500E+06
 OPTDRV    STEP TOLERANCE    =  .1000000013351E-09
 OPTDRV    GRADIENT TOLERANCE=  .1000000013351E-09
 OPTDRV    TRUST REG RADIUS  = -.1000000000000E+01
 OPTDRV    REL NOISE IN FCN  =  .9999999974752E-06
 OPTDRV    ANAL-FD TOLERANCE =  .9999999776483E-02

0RESULT    ITERATE K=    0
 RESULT       STEP
 RESULT                   .0000000000000E+00    .0000000000000E+00    .0000000000000E+00    .0000000000000E+00
 RESULT       X(K)
 RESULT                  -.3000000000000E+03   -.1000000000000E+03   -.3000000000000E+03   -.1000000000000E+03
 RESULT       FUNCTION AT X(K)
 RESULT                   .1542422659072E+13
 RESULT       GRADIENT AT X(K)
 RESULT                  -.1079596339200E+11   -.1835008000000E+08   -.9715930112000E+10   -.1703936000000E+08
 RESULT       HESSIAN AT X(K)
 RESULT     ROW    1
 RESULT           .1000000000000E+01
 RESULT     ROW    2
 RESULT           .0000000000000E+00    .1000000000000E+01
 RESULT     ROW    3
 RESULT           .0000000000000E+00    .0000000000000E+00    .1000000000000E+01
 RESULT     ROW    4
 RESULT           .0000000000000E+00    .0000000000000E+00    .0000000000000E+00    .1000000000000E+01
 OPTDRV    SHIFT FROM FORWARD TO CENTRAL DIFFERENCES IN ITERATION   100
0OPTSTP    LAST GLOBAL STEP FAILED TO LOCATE A POINT LOWER THAN X.
 OPTSTP    EITHER X IS AN APPROXIMATE LOCAL MINIMUM OF THE FUNCTION,
 OPTSTP    THE FUNCTION IS TOO NON-LINEAR FOR THIS ALGORITHM,
 OPTSTP    OR STEPTL IS TOO LARGE.

0RESULT    ITERATE K=  105
 RESULT       X(K)
 RESULT                   .9989776015282E+00    .9980438351631E+00    .1000532150269E+01    .1001170635223E+01
 RESULT       FUNCTION AT X(K)
 RESULT                   .1025647725328E-04
 RESULT       GRADIENT AT X(K)
 RESULT                   .2933293813840E-02    .1182453823276E-02   -.1060956972651E-02    .4006098024547E-02
 OPTEST    #FCN  EVAL =       643
 OPTEST    GRAD EVAL =          0
 OPTEST    HSN  EVAL =          0
 OPTEST    EXEC TIME =     1.0000 SEC
1
0OPTDRV    TYPICAL X
 OPTDRV         .1000000000000E+01     .1000000000000E+01     .1000000000000E+01     .1000000000000E+01
 OPTDRV    DIAGONAL SCALING MATRIX FOR X
 OPTDRV         .1000000000000E+01     .1000000000000E+01     .1000000000000E+01     .1000000000000E+01
 OPTDRV    TYPICAL F =  .1000000000000E+01
0OPTDRV    NUMBER OF GOOD DIGITS IN FCN=    6
 OPTDRV    GRADIENT FLAG  =    0   (=1 IF ANALYTIC GRADIENT SUPPLIED)
 OPTDRV    HESSIAN FLAG   =    0   (=1 IF ANALYTIC HESSIAN SUPPLIED)
 OPTDRV    EXPENSE FLAG   =    0   (=1 IF MINIMIZATION FUNCTION EXPENSIVE TO EVALUATE)
 OPTDRV    METHOD TO USE  =    3   (=1,2,3 FOR LINE SEARCH, DOUBLE DOGLEG, MORE-HEBDON RESPECTIVELY)
 OPTDRV    ITERATION LIMIT=  500
 OPTDRV    MACHINE EPSILON=  .1192092895508E-06
0OPTDRV    MAXIMUM STEP SIZE =  .4472135937500E+06
 OPTDRV    STEP TOLERANCE    =  .1000000013351E-09
 OPTDRV    GRADIENT TOLERANCE=  .1000000013351E-09
 OPTDRV    TRUST REG RADIUS  = -.1000000000000E+01
 OPTDRV    REL NOISE IN FCN  =  .9999999974752E-06
 OPTDRV    ANAL-FD TOLERANCE =  .9999999776483E-02

0RESULT    ITERATE K=    0
 RESULT       STEP
 RESULT                   .0000000000000E+00    .0000000000000E+00    .0000000000000E+00    .0000000000000E+00
 RESULT       X(K)
 RESULT                  -.3000000000000E+03   -.1000000000000E+03   -.3000000000000E+03   -.1000000000000E+03
 RESULT       FUNCTION AT X(K)
 RESULT                   .1542422659072E+13
 RESULT       GRADIENT AT X(K)
 RESULT                  -.1079596339200E+11   -.1835008000000E+08   -.9715930112000E+10   -.1703936000000E+08
 RESULT       HESSIAN AT X(K)
 RESULT     ROW    1
 RESULT           .1059062080000E+09
 RESULT     ROW    2
 RESULT           .1310720312500E+06    .0000000000000E+00
 RESULT     ROW    3
 RESULT           .0000000000000E+00    .0000000000000E+00    .9528937600000E+08
 RESULT     ROW    4
 RESULT           .0000000000000E+00    .0000000000000E+00    .8738135156250E+05    .0000000000000E+00
 OPTDRV    SHIFT FROM FORWARD TO CENTRAL DIFFERENCES IN ITERATION   116
0OPTSTP    LAST GLOBAL STEP FAILED TO LOCATE A POINT LOWER THAN X.
 OPTSTP    EITHER X IS AN APPROXIMATE LOCAL MINIMUM OF THE FUNCTION,
 OPTSTP    THE FUNCTION IS TOO NON-LINEAR FOR THIS ALGORITHM,
 OPTSTP    OR STEPTL IS TOO LARGE.

0RESULT    ITERATE K=  145
 RESULT       X(K)
 RESULT                   .9991416335106E+00    .9983800053596E+00    .1000291347504E+01    .1000684142113E+01
 RESULT       FUNCTION AT X(K)
 RESULT                   .1195688309963E-04
 RESULT       GRADIENT AT X(K)
 RESULT                  -.9685756231192E-04    .3329478568048E-04    .1320230949204E-03   -.2322061482118E-04
 OPTEST    #FCN  EVAL =      2928
 OPTEST    GRAD EVAL =          0
 OPTEST    HSN  EVAL =          0
 OPTEST    EXEC TIME =     1.0000 SEC
1
0OPTDRV    TYPICAL X
 OPTDRV         .1000000000000E+01     .1000000000000E+01     .1000000000000E+01     .1000000000000E+01
 OPTDRV    DIAGONAL SCALING MATRIX FOR X
 OPTDRV         .1000000000000E+01     .1000000000000E+01     .1000000000000E+01     .1000000000000E+01
 OPTDRV    TYPICAL F =  .1000000000000E+01
0OPTDRV    NUMBER OF GOOD DIGITS IN FCN=    6
 OPTDRV    GRADIENT FLAG  =    0   (=1 IF ANALYTIC GRADIENT SUPPLIED)
 OPTDRV    HESSIAN FLAG   =    0   (=1 IF ANALYTIC HESSIAN SUPPLIED)
 OPTDRV    EXPENSE FLAG   =    1   (=1 IF MINIMIZATION FUNCTION EXPENSIVE TO EVALUATE)
 OPTDRV    METHOD TO USE  =    3   (=1,2,3 FOR LINE SEARCH, DOUBLE DOGLEG, MORE-HEBDON RESPECTIVELY)
 OPTDRV    ITERATION LIMIT=  500
 OPTDRV    MACHINE EPSILON=  .1192092895508E-06
0OPTDRV    MAXIMUM STEP SIZE =  .4472135937500E+06
 OPTDRV    STEP TOLERANCE    =  .1000000013351E-09
 OPTDRV    GRADIENT TOLERANCE=  .1000000013351E-09
 OPTDRV    TRUST REG RADIUS  = -.1000000000000E+01
 OPTDRV    REL NOISE IN FCN  =  .9999999974752E-06
 OPTDRV    ANAL-FD TOLERANCE =  .9999999776483E-02

0RESULT    ITERATE K=    0
 RESULT       STEP
 RESULT                   .0000000000000E+00    .0000000000000E+00    .0000000000000E+00    .0000000000000E+00
 RESULT       X(K)
 RESULT                  -.3000000000000E+03   -.1000000000000E+03   -.3000000000000E+03   -.1000000000000E+03
 RESULT       FUNCTION AT X(K)
 RESULT                   .1542422659072E+13
 RESULT       GRADIENT AT X(K)
 RESULT                  -.1079596339200E+11   -.1835008000000E+08   -.9715930112000E+10   -.1703936000000E+08
 RESULT       HESSIAN AT X(K)
 RESULT     ROW    1
 RESULT           .1000000000000E+01
 RESULT     ROW    2
 RESULT           .0000000000000E+00    .1000000000000E+01
 RESULT     ROW    3
 RESULT           .0000000000000E+00    .0000000000000E+00    .1000000000000E+01
 RESULT     ROW    4
 RESULT           .0000000000000E+00    .0000000000000E+00    .0000000000000E+00    .1000000000000E+01
0OPTSTP    ITERATION LIMIT EXCEEDED.
 OPTSTP    ALGORITHM FAILED.

0RESULT    ITERATE K=  500
 RESULT       X(K)
 RESULT                   .1898651480675E+01    .3592986106873E+01   -.6524888873100E+00    .2191460430622E+00
 RESULT       FUNCTION AT X(K)
 RESULT                   .4137031555176E+02
 RESULT       GRADIENT AT X(K)
 RESULT                   .1357389450073E+02    .3493439483643E+02   -.5164336776733E+02   -.1525878787041E+01
 OPTEST    #FCN  EVAL =      2526
 OPTEST    GRAD EVAL =          0
 OPTEST    HSN  EVAL =          0
 OPTEST    EXEC TIME =     1.0000 SEC
